…
``` r
text_df <- tibble(line = 1:length(text), text = text)
View(text_df)
#Remove stopwords  ====================

data(stop_words)
stop_words
```

    ## # A tibble: 1,149 x 2
    ##    word        lexicon
    ##    <chr>       <chr>  
    ##  1 a           SMART  
    ##  2 a's         SMART  
    ##  3 able        SMART  
    ##  4 about       SMART  
    ##  5 above       SMART  
    ##  6 according   SMART  
    ##  7 accordingly SMART  
    ##  8 across      SMART  
    ##  9 actually    SMART  
    ## 10 after       SMART  
    ## # ... with 1,139 more rows
…
``` r
# Count Tokens =============================
Alexadata %>%
  count(word, sort = TRUE)
```

    ## # A tibble: 6,841 x 2
    ##    word        n
    ##    <chr>   <int>
    ##  1 love      953
    ##  2 echo      832
    ##  3 alexa     622
    ##  4 music     539
    ##  5 easy      342
    ##  6 sound     338
    ##  7 set       306
    ##  8 dot       283
    ##  9 amazon    254
    ## 10 product   251
    ## # ... with 6,831 more rows
…
``` r
(  se = bing_dict %>% dplyr::select(word, sentiment)  )
```

    ## # A tibble: 6,786 x 2
    ##    word        sentiment
    ##    <chr>       <chr>    
    ##  1 2-faces     negative 
    ##  2 abnormal    negative 
    ##  3 abolish     negative 
    ##  4 abominable  negative 
    ##  5 abominably  negative 
    ##  6 abominate   negative 
    ##  7 abomination negative 
    ##  8 abort       negative 
    ##  9 aborted     negative 
    ## 10 aborts      negative 
    ## # ... with 6,776 more rows
…
``` r
#============================================================================= # 
#Sentiment Index =============================================================
(  Alexa_sent2 = Alexadata %>%
     inner_join(se) %>% 
     count(word, sentiment, sort=TRUE)   )
```

    ## Joining, by = "word"

    ## # A tibble: 584 x 3
    ##    word    sentiment     n
    ##    <chr>   <chr>     <int>
    ##  1 love    positive    953
    ##  2 easy    positive    342
    ##  3 smart   positive    184
    ##  4 fun     positive    151
    ##  5 alarm   negative    110
    ##  6 nice    positive     98
    ##  7 amazing positive     84
    ##  8 awesome positive     75
    ##  9 perfect positive     74
    ## 10 pretty  positive     62
    ## # ... with 574 more rows
…
